…
A matrix is returned. If the list is long, it is easier to see the pairs of the titles and chart_ids by adding `as_tibble()`.


```r
owid_search("emissions") %>% as_tibble()
#> # A tibble: 187 × 2
#>    titles                                           chart_id
#>    <chr>                                            <chr>   
#>  1 Methane emissions from agriculture               methane…
#>  2 Nitrous oxide emissions from agriculture         nitrous…
#>  3 Per capita nitrous oxide emissions from agricul… per-cap…
#>  4 Air pollutant emissions                          air-pol…
#>  5 Emissions of air pollutants                      emissio…
#>  6 Emissions of air pollutants                      emissio…
#>  7 Emissions of particulate matter                  emissio…
#>  8 Global sulphur dioxide (SO₂) emissions by world… so-emis…
#>  9 Sulphur dioxide (SO₂) emissions                  so2-emi…
#> 10 Sulphur oxide (SO₂) emissions                    sulphur…
#> # ℹ 177 more rows
```
…
See the detail at the [GitHub site](https://github.com/owid/covid-19-data/tree/master/public/data#data-on-covid-19-coronavirus-by-our-world-in-data).

* Example


```r
covid <- owid_covid()
```


```r
covid %>% filter(location == "Japan")
#> # A tibble: 1,428 × 67
#>    iso_code continent location date       total_cases
#>    <chr>    <chr>     <chr>    <date>           <dbl>
#>  1 JPN      Asia      Japan    2020-01-03          NA
#>  2 JPN      Asia      Japan    2020-01-04          NA
#>  3 JPN      Asia      Japan    2020-01-05          NA
#>  4 JPN      Asia      Japan    2020-01-06          NA
#>  5 JPN      Asia      Japan    2020-01-07          NA
#>  6 JPN      Asia      Japan    2020-01-08          NA
#>  7 JPN      Asia      Japan    2020-01-09          NA
#>  8 JPN      Asia      Japan    2020-01-10          NA
#>  9 JPN      Asia      Japan    2020-01-11          NA
#> 10 JPN      Asia      Japan    2020-01-12          NA
#> # ℹ 1,418 more rows
#> # ℹ 62 more variables: new_cases <dbl>,
#> #   new_cases_smoothed <dbl>, total_deaths <dbl>,
#> #   new_deaths <dbl>, new_deaths_smoothed <dbl>,
#> #   total_cases_per_million <dbl>,
#> #   new_cases_per_million <dbl>,
#> #   new_cases_smoothed_per_million <dbl>, …
```
…
Creating a choropleth map.


```r
owid_map(internet, year = 2017) +
  labs(title = "Share of Population Using the Internet, 2017")
```

### Democracy - modified from vignette


```r
owid_search("democrac") %>% as_tibble()
#> # A tibble: 93 × 2
#>    titles                                           chart_id
#>    <chr>                                            <chr>   
#>  1 Child mortality rate vs. electoral democracy     child-m…
#>  2 People living in democracies and non-democracies world-p…
#>  3 Age of democracy                                 age-of-…
#>  4 Age of democracy                                 age-of-…
#>  5 Age of democracy                                 age-of-…
#>  6 Age of electoral democracy                       age-of-…
#>  7 Age of electoral democracy                       age-of-…
#>  8 Age of liberal democracy                         age-of-…
#>  9 Citizen satisfaction with democracy              citizen…
#> 10 Citizen support for democracy                    citizen…
#> # ℹ 83 more rows
```
…
